^C:\USERS\USER\DESKTOP\מגשימים\מגשימים כיתה יא\סמסטר ב\עקרונות מתקדמים איציק\LESSON 17\HW17_ROTEM\EX1\DEBUG\CLIENT.OBJ|C:\USERS\USER\DESKTOP\מגשימים\מגשימים כיתה יא\סמסטר ב\עקרונות מתקדמים איציק\LESSON 17\HW17_ROTEM\EX1\DEBUG\CRYPTODEVICE.OBJ
C:\USERS\USER\DESKTOP\מגשימים\מגשימים כיתה יא\סמסטר ב\עקרונות מתקדמים איציק\LESSON 17\HW17_ROTEM\DEBUG\EX1.ILK
C:\USERS\USER\DESKTOP\מגשימים\מגשימים כיתה יא\סמסטר ב\עקרונות מתקדמים איציק\LESSON 17\HW17_ROTEM\DEBUG\EX1.EXE
C:\USERS\USER\DESKTOP\מגשימים\מגשימים כיתה יא\סמסטר ב\עקרונות מתקדמים איציק\LESSON 17\HW17_ROTEM\DEBUG\EX1.PDB
